Directory,Comments
/,The root
/bin,Contains boot binaries and system binaries
/boot,"Contains Linux kernel, initial RAM disk image"
/dev,Special directory for device nodes. Houses  list of all devices understood by system
/etc,"Contains system wide config files, collection of shell scripts, boot scripts"
/home,Users usually have a directory underneath home dir
/lib,Contains shared library files used by core system programs
/lost+found,Eac partition for linux has this directory. Used in the case of a partial recovery from  a filesystem corruption event. 
/media,"Contains mount points for removable meia, such as USB drives or CD Roms"
/mnt,Old Linux systems used this directory for removable devices mounted manually
/opt,Used to install commercial optional software products
/proc,Virtual filesystem maintained by linux. Files contained are a peephole into kernel itself. 
/root,Home directory for root acct
/sbin,System binaries that perform vital acts
/tmp,Intended for storage of temporary transient files created by apps
/usr,Contains all the programs and support files used by regular users. Often the biggest directory on system.
/usr/bin,Contains executables installed by linux distro
/usr/lib,Shared liraries for /usr/bin
/usr/local,Where software not installed by distribution but intended for system-wide use are installed
/usr/sbin,Contains more sys admin programs
/usr/share,Cntains shared data used by /usr/bin
/usr/share/doc,Most packages installed on the system will include some kind of documentation. 
/var,"Often subject to files or structures that will and do constantly change, such as databases, mail, spool files are stored"
/var/log,Contains log files for various system activity. Should be monitored. 
