character,meaning,example
Y,Year as 4 digits,2014
y,Year as 2 digits, 14
L,Is it a leap year, 1 for yes
n, month as 1 or 2 digits, 2
m, month as 2 digits, 02
F,Month,February
M,month as 3 letters,Feb
j,day of the month as one or two digits, 8
d,day of the month as 2 digits, 08
lowercase L, day of the week, Monday
D, Day of the week as 3 letters, Mon
w, Day of the week as single digit, 0 (Sunday) - 6(Saturday)
z, day of the year, (0 to 365)
t, Number of days in month, 31
S, English ordinal suffix for a day as 2 chars, rd
g, 12 hour format as 1 or 2 digits, 6
G, 24 hour format as 2 digits, 18
h, 12 hour format as 2 digits, 06
H, 24 hour format as 2 digits, 18
i, minutes, 45
s, seconds, 30
u, microseconds, 15
a, am or pm, am
A, AM or PM, AM
U, seconds since the epoch, 10486230008
e, timezone, utc
(capital) i, Is it daylight savings?, 1 (for yes)
O, difference from GMT, +0600
